{
  "name": "nechronica",
  "title": "Nechronica",
  "description": "A game system for running games of Nechronica in the Foundry VTT environment",
  "version": "0.1.3",
  "author": "Ethaks",
  "authors": [
    {
      "name": "Ethaks",
      "email": "ethaks@pm.me",
      "discord": "Ethaks#2903"
    }
  ],
  "esmodules": ["nechronica.js"],
  "styles": ["./styles/nechronica.css", "./styles/components.css"],
  "packs": [],
  "languages": [
    {
      "lang": "en",
      "name": "English",
      "path": "lang/en.json"
    },
    {
      "lang": "ja",
      "name": "日本語",
      "path": "./lang/ja.json"
    }
  ],
  "socket": true,
  "initiative": "@ap.max",
  "gridDistance": 1,
  "gridUnits": "",
  "primaryTokenAttribute": "ap",
  "secondaryTokenAttribute": "spineCounter",
  "minimumCoreVersion": "9",
  "compatibleCoreVersion": "9",
  "url": "https://gitlab.com/Ethaks/foundryvtt-nechronica",
  "manifest": "https://gitlab.com/Ethaks/foundryvtt-nechronica/-/raw/master/system.json",
  "download": "https://gitlab.com/Ethaks/foundryvtt-nechronica/-/jobs/artifacts/0.1.3/raw/nechronica.zip?job=build-prod"
}
